{
  "$id": "https://cs-project.org/bio/bio-v0.1.0.json",
  "$schema": "http://json-schema.org/draft-07/schema#",
  "type": "object",
  "properties": {
    "personal": {
      "type": "object",
      "properties": {
        "name":     { "type": "string" },
        "nickname": { "type": "string" },
        "email":    { "type": "string" },
        "phone":    { "type": "string" },
        "summary":  { "type": "string" },
        "locations": {
          "type": "array",
          "items": [ {
            "type": "string"
          } ]
        },
        "links": {
          "type": "array",
          "items": [ {
            "type": "object",
            "properties": {
              "name": { "type": "string" },
              "uri": { "type": "string" }
            },
            "required": [
              "uri"
            ]
          } ]
        },
        "skills": {
          "type": "array",
          "items": [ {
            "type": "object",
            "properties": {
              "name": { "type": "string" },
              "proficiency": {
                "type": "string",
                "enum": ["fundamental", "intermediate", "advanced"]
              }
            },
            "required": [
              "name"
            ]
          } ]
        }
      },
      "required": [
        "name"
      ]
    },
    "education": {
      "type": "array",
      "items": [
        {
          "type": "object",
          "properties": {
            "institution": {
              "type": "string"
            },
            "degrees": {
              "type": "array",
              "items": [
                {
                  "type": "object",
                  "properties": {
                    "name": {
                      "type": "string"
                    },
                    "details": {
                      "type": "array",
                      "items": [
                        {
                          "type": "string"
                        }
                      ]
                    }
                  },
                  "required": [
                    "name"
                  ]
                }
              ]
            }
          },
          "required": [
            "institution",
            "degrees"
          ]
        }
      ]
    },
    "experience": {
      "type": "array",
      "items": [
        {
          "type": "object",
          "properties": {
            "organization": {
              "type": "string"
            },
            "industry": {
              "type": "string"
            },
            "locations": {
              "type": "array",
              "items": [
                {
                  "type": "string"
                }
              ]
            },
            "summary": {
              "type": "string"
            },
            "positions": {
              "type": "array",
              "items": [
                {
                  "type": "object",
                  "properties": {
                    "title": {
                      "type": "string"
                    },
                    "span": {
                      "type": "object",
                      "properties": {
                        "start": {
                          "type": "string"
                        },
                        "end": {
                          "type": "string"
                        }
                      },
                      "required": [
                        "start"
                      ]
                    },
                    "details": {
                      "type": "array",
                      "items": [
                        {
                          "type": "string"
                        }
                      ]
                    }
                  },
                  "required": [
                    "title",
                    "span",
                    "details"
                  ]
                }
              ]
            }
          },
          "required": [
            "organization",
            "positions"
          ]
        }
      ]
    }
  },
  "required": [
    "personal"
  ]
}
